…
Question 2: What are the 10 most popular songs? What genres show up more than once? To test this I will need to filter for genre, song name, and popularity and then arrange them in descending order. From there I will get a list of the top 10 popular songs and can see what genres show up more than once.

## # A tibble: 32,833 x 3
## # Groups:   track_name [23,450]
##    track_name      playlist_genre track_popularity
##    <chr>           <chr>                     <dbl>
##  1 Dance Monkey    pop                         100
##  2 Dance Monkey    latin                       100
##  3 ROXANNE         latin                        99
##  4 ROXANNE         r&b                          99
##  5 ROXANNE         r&b                          99
##  6 ROXANNE         edm                          99
##  7 Tusa            pop                          98
##  8 Memories        pop                          98
##  9 Blinding Lights pop                          98
## 10 Memories        pop                          98
## # … with 32,823 more rows
…
